[
   {
      "objectGuid": "0PJNHGzhgmRlpb7wgLsduv",
      "objectName": "FileShare_Src",
      "objectType": "Connection",
      "path": "/SYS",
      "metadata": {
         "additionalInfo": {
            "contentType": "JSON",
            "description": null,
            "documentState": "VALID"
         },
         "contextAttributes": [
            {
               "name": "id",
               "value": "@1"
            }
         ],
         "modelVersion": {
            "major": 0,
            "minor": 0
         },
         "objectRefs": [
            "iBkMyQQqHUbgSyM2pIQcMd"
         ],
         "repoInfo": {
            "repoHandle": "0004LX0B0000000000AN"
         }
      }
   },
   {
      "objectGuid": "iBkMyQQqHUbgSyM2pIQcMd",
      "objectName": "gyanesh-ics-group",
      "objectType": "AgentGroup",
      "path": "/SYS",
      "metadata": {
         "additionalInfo": {
            "contentType": "JSON",
            "description": null,
            "documentState": "VALID"
         },
         "contextAttributes": [
            {
               "name": "id",
               "value": "@1"
            }
         ],
         "modelVersion": {
            "major": 0,
            "minor": 0
         },
         "objectRefs": [],
         "repoInfo": {
            "repoHandle": "0004LX2500000000000T"
         }
      }
   }
]
